\relax 
\providecommand\hyper@newdestlabel[2]{}
\providecommand\HyperFirstAtBeginDocument{\AtBeginDocument}
\HyperFirstAtBeginDocument{\ifx\hyper@anchor\@undefined
\global\let\oldcontentsline\contentsline
\gdef\contentsline#1#2#3#4{\oldcontentsline{#1}{#2}{#3}}
\global\let\oldnewlabel\newlabel
\gdef\newlabel#1#2{\newlabelxx{#1}#2}
\gdef\newlabelxx#1#2#3#4#5#6{\oldnewlabel{#1}{{#2}{#3}}}
\AtEndDocument{\ifx\hyper@anchor\@undefined
\let\contentsline\oldcontentsline
\let\newlabel\oldnewlabel
\fi}
\fi}
\global\let\hyper@last\relax 
\gdef\HyperFirstAtBeginDocument#1{#1}
\providecommand\HyField@AuxAddToFields[1]{}
\providecommand\HyField@AuxAddToCoFields[2]{}
\citation{rlwe_orig}
\citation{clrs}
\citation{signature,newhope,speeding_up,kyber_fft}
\@writefile{toc}{\contentsline {title}{FFT Program Generation for Ring LWE-based Cryptography}{1}{chapter.1}\protected@file@percent }
\@writefile{toc}{\authcount {2}}
\@writefile{toc}{\contentsline {author}{Masahiro Masuda \textifsymbol {0}\and Yukiyoshi Kameyama}{1}{chapter.1}\protected@file@percent }
\@writefile{toc}{\contentsline {section}{\numberline {1}Introduction}{1}{section.1.1}\protected@file@percent }
\newlabel{sec:org22e5d9c}{{1}{1}{Introduction}{section.1.1}{}}
\citation{newhope,speeding_up}
\citation{ocaml_manual}
\citation{newhope}
\citation{kyber_fft}
\citation{kyber_fft}
\citation{signature,roy,atxmega,nfllib,newhope,speeding_up,kyber_fft}
\citation{newhope,speeding_up,kyber_fft}
\citation{newhope}
\citation{kyber_kem}
\citation{kyber_fft}
\citation{atxmega,speeding_up}
\citation{clrs}
\citation{newhope}
\citation{kyber_kem}
\@writefile{toc}{\contentsline {section}{\numberline {2}Related Work}{3}{section.1.2}\protected@file@percent }
\newlabel{sec:orgd54cb13}{{2}{3}{Related Work}{section.1.2}{}}
\newlabel{sec.relatedwork}{{2}{3}{Related Work}{section.1.2}{}}
\@writefile{toc}{\contentsline {section}{\numberline {3}Background}{3}{section.1.3}\protected@file@percent }
\newlabel{sec:org9cfdd47}{{3}{3}{Background}{section.1.3}{}}
\newlabel{sec.context}{{3}{3}{Background}{section.1.3}{}}
\@writefile{toc}{\contentsline {subsection}{\numberline {3.1}FFT in the RLWE context}{3}{subsection.1.3.1}\protected@file@percent }
\newlabel{sec:orgef45919}{{3.1}{3}{FFT in the RLWE context}{subsection.1.3.1}{}}
\newlabel{sec.background}{{3.1}{3}{FFT in the RLWE context}{subsection.1.3.1}{}}
\citation{newhope,speeding_up,kyber_fft}
\citation{roy,atxmega}
\citation{clrs}
\citation{newhope,kyber_fft}
\citation{barrett}
\citation{montgomery}
\citation{tagless,oleg_tagless}
\@writefile{loa}{\contentsline {algorithm}{\numberline {1}{\ignorespaces The pseudocode for the bottom-up, in-place FFT}}{4}{algorithm.1}\protected@file@percent }
\newlabel{fft_pseudocode}{{1}{4}{FFT in the RLWE context}{algorithm.1}{}}
\newlabel{alg_1}{{1}{4}{FFT in the RLWE context}{algorithm.1}{}}
\@writefile{toc}{\contentsline {subsection}{\numberline {3.2}Tagless-final style}{4}{subsection.1.3.2}\protected@file@percent }
\newlabel{sec:org48bcae0}{{3.2}{4}{Tagless-final style}{subsection.1.3.2}{}}
\newlabel{sec.tagless}{{3.2}{4}{Tagless-final style}{subsection.1.3.2}{}}
\citation{oleg_book}
\@writefile{toc}{\contentsline {section}{\numberline {4}The proposed approach}{7}{section.1.4}\protected@file@percent }
\newlabel{sec:orga1d085f}{{4}{7}{The proposed approach}{section.1.4}{}}
\newlabel{sec.proposal}{{4}{7}{The proposed approach}{section.1.4}{}}
\@writefile{toc}{\contentsline {subsection}{\numberline {4.1}Abstract definition of the FFT innermost loop}{7}{subsection.1.4.1}\protected@file@percent }
\newlabel{sec:org8fbaf26}{{4.1}{7}{Abstract definition of the FFT innermost loop}{subsection.1.4.1}{}}
\citation{barrett,montgomery}
\citation{newhope}
\@writefile{toc}{\contentsline {subsection}{\numberline {4.2}Vectorizing modular reductions}{8}{subsection.1.4.2}\protected@file@percent }
\newlabel{sec:orgda0a840}{{4.2}{8}{Vectorizing modular reductions}{subsection.1.4.2}{}}
\newlabel{sec.mod_vec}{{4.2}{8}{Vectorizing modular reductions}{subsection.1.4.2}{}}
\citation{kyber_fft}
\citation{kyber_fft}
\@writefile{toc}{\contentsline {subsection}{\numberline {4.3}Subtraction}{11}{subsection.1.4.3}\protected@file@percent }
\newlabel{sec:org1b2dbd8}{{4.3}{11}{Subtraction}{subsection.1.4.3}{}}
\newlabel{sec.sub}{{4.3}{11}{Subtraction}{subsection.1.4.3}{}}
\@writefile{toc}{\contentsline {subsection}{\numberline {4.4}Vectorizing the innermost loop}{12}{subsection.1.4.4}\protected@file@percent }
\newlabel{sec:org7a0de9e}{{4.4}{12}{Vectorizing the innermost loop}{subsection.1.4.4}{}}
\@writefile{lof}{\contentsline {figure}{\numberline {1}{\ignorespaces Shuffling elements between neighboring two vectors enables vectorization}}{13}{figure.1.1}\protected@file@percent }
\newlabel{fig:org9018ae8}{{1}{13}{Shuffling elements between neighboring two vectors enables vectorization}{figure.1.1}{}}
\citation{newhope}
\@writefile{toc}{\contentsline {subsection}{\numberline {4.5}Lazy reduction}{14}{subsection.1.4.5}\protected@file@percent }
\newlabel{sec:org1e606db}{{4.5}{14}{Lazy reduction}{subsection.1.4.5}{}}
\@writefile{toc}{\contentsline {subsection}{\numberline {4.6}SIMD Backend implementation}{14}{subsection.1.4.6}\protected@file@percent }
\newlabel{sec:orgbe1f551}{{4.6}{14}{SIMD Backend implementation}{subsection.1.4.6}{}}
\newlabel{sec.backend}{{4.6}{14}{SIMD Backend implementation}{subsection.1.4.6}{}}
\citation{signature,kyber_fft}
\citation{kyber_fft}
\@writefile{toc}{\contentsline {section}{\numberline {5}Experiments}{15}{section.1.5}\protected@file@percent }
\newlabel{sec:org89ed1a1}{{5}{15}{Experiments}{section.1.5}{}}
\@writefile{lot}{\contentsline {table}{\numberline {1}{\ignorespaces Cycle counts on Core i7-8700K (Coffee Lake, AVX2)}}{15}{table.1.1}\protected@file@percent }
\newlabel{tab:orgd187c11}{{1}{15}{Cycle counts on Core i7-8700K (Coffee Lake, AVX2)}{table.1.1}{}}
\@writefile{lot}{\contentsline {table}{\numberline {2}{\ignorespaces Cycle counts on Core i7-1065G7 (Ice Lake, AVX2 and AVX512)}}{15}{table.1.2}\protected@file@percent }
\newlabel{tab:org8716501}{{2}{15}{Cycle counts on Core i7-1065G7 (Ice Lake, AVX2 and AVX512)}{table.1.2}{}}
\citation{metaocaml_split_radix,fftw_split_radix}
\citation{kyber_fft}
\citation{ntt_verif}
\@writefile{toc}{\contentsline {section}{\numberline {6}Conclusion}{16}{section.1.6}\protected@file@percent }
\newlabel{sec:org5f4b8c7}{{6}{16}{Conclusion}{section.1.6}{}}
\@writefile{toc}{\contentsline {section}{\numberline {Appendix\nobreakspace  {}A}\texttt  {Vectorize} module}{17}{section.1..1}\protected@file@percent }
\newlabel{sec:org98dccc8}{{Appendix\nobreakspace  {}A}{17}{\texttt {Vectorize} module}{section.1..1}{}}
\newlabel{a1}{{Appendix\nobreakspace  {}A}{17}{\texttt {Vectorize} module}{section.1..1}{}}
\@writefile{toc}{\contentsline {section}{\numberline {Appendix\nobreakspace  {}B}Lazy reduction implementation}{17}{section.1..2}\protected@file@percent }
\newlabel{sec:orgeeb61bf}{{Appendix\nobreakspace  {}B}{17}{Lazy reduction implementation}{section.1..2}{}}
\newlabel{a2}{{Appendix\nobreakspace  {}B}{17}{Lazy reduction implementation}{section.1..2}{}}
\@writefile{toc}{\contentsline {section}{\numberline {Appendix\nobreakspace  {}C}Details on SIMD backend implementation}{18}{section.1..3}\protected@file@percent }
\newlabel{sec:orgb8213a2}{{Appendix\nobreakspace  {}C}{18}{Details on SIMD backend implementation}{section.1..3}{}}
\newlabel{a3}{{Appendix\nobreakspace  {}C}{18}{Details on SIMD backend implementation}{section.1..3}{}}
\bibstyle{splncs04}
\bibdata{refs}
\bibcite{nfllib}{1}
\bibcite{newhope}{2}
\bibcite{barrett}{3}
\bibcite{kyber_kem}{4}
\bibcite{tagless}{5}
\bibcite{clrs}{6}
\bibcite{signature}{7}
\bibcite{fftw_split_radix}{8}
\bibcite{oleg_tagless}{9}
\bibcite{oleg_book}{10}
\bibcite{metaocaml_split_radix}{11}
\bibcite{ocaml_manual}{12}
\bibcite{atxmega}{13}
\bibcite{speeding_up}{14}
\bibcite{rlwe_orig}{15}
\bibcite{montgomery}{16}
\bibcite{ntt_verif}{17}
\bibcite{roy}{18}
\bibcite{kyber_fft}{19}
